NFL Punt Analytics
…
The table above can be interpreted the same as the previous section. Several observations:

The PR was the primary partner in 24.2% of concussions in the sample. This was 19.7% more than expected based on prevalence of the role alone, but considering that most players during a punt are moving toward the PR (either to block for him or to tackle him) this may not be surprising.

PDs, who account for the largest proportion of any specific role during punts, were also primary partners in 24.2% of concussions in the sample, but this was slightly less than expected given their prevalence on the field.

Outside of PR, the only role who were primary partners at least 10% more or less than expected were Vs, who were expected to be primary partners on 13.5% but were considered primary partners on only 3%. No other role had greater than 4.6% difference between expected and observed.

Role Interactions During Concussions

Finally, I explored pairwise role interactions during concussions plays, to investigate if there are certain combinations of roles more frequently involved in concussions.

## # A tibble: 26 x 3
##    concussed_role primary_partner_role  freq
##    <chr>          <chr>                <int>
##  1 PW             PD                       3
##  2 G              PR                       2
##  3 PT             PR                       2
##  4 PG             PW                       2
##  5 PG             PR                       2
##  6 PG             PD                       2
##  7 PW             PR                       1
##  8 G              PL                       1
##  9 PT             G                        1
## 10 V              PG                       1
## # ... with 16 more rows
…
## # A tibble: 22 x 3
##    Player Role  `Speed (mph)`
##     <dbl> <chr>         <dbl>
##  1  33464 PR             19  
##  2  31999 PD             16.8
##  3  32615 PLS            16  
##  4  33911 G              15.7
##  5  33808 PW             15.5
##  6  33902 PD             14.7
##  7  29414 PD             14.1
##  8  25825 P              13.3
##  9  31042 PW             12.7
## 10  31462 PG             12.5
## # ... with 12 more rows
…
## # A tibble: 22 x 3
##    Player Role  `Speed (mph)`
##     <dbl> <chr>         <dbl>
##  1  33464 PR             18.2
##  2  33808 PW             16.6
##  3  33911 G              15.7
##  4  29414 PD             15.1
##  5  33902 PD             14.9
##  6  31462 PG             14.1
##  7  25825 P              13.5
##  8  32775 V              13.1
##  9  29844 PT             12.9
## 10  28987 PG             12.7
## # ... with 12 more rows
…
## # A tibble: 22 x 3
##    Player Role  `Speed (mph)`
##     <dbl> <chr>         <dbl>
##  1  33464 PR             18  
##  2  33808 PW             17  
##  3  29414 PD             15.5
##  4  31462 PG             14.5
##  5  28987 PG             14.1
##  6  33911 G              13.9
##  7  33902 PD             13.7
##  8  29844 PT             13.5
##  9  25825 P              13.3
## 10  32775 V              13.1
## # ... with 12 more rows
…
